date: 2017/10/10-14:41:44
region_id, sys_mem, domcnt, timestamp,  total_accesses,total_list,local_list,remote_list,given_list,used_list,total_puts, total_putssucc,total_putrateavg,total_putrateinst,total_gets,total_getssucc,total_getrateavg,total_getrateinst, total_flush,total_flushsucc,total_flushrateavg,total_flushrateinst,local_puts,local_putrateavg,local_putrateinst, local_gets,local_getrateavg,local_getrateinst,local_flush,local_flushrateavg,local_flushrateinst,remote_puts, remote_putrateavg,remote_putrateinst,remote_gets,remote_getrateavg,remote_getrateinst,remote_flush,remote_flushrateavg, remote_flushrateinst,total_tmem,local_tmem,remote_tmem
22,0,2,371711783356, 2,0,393214,0,0,0,2, 2,0.005381,0.005381,0,0,0.000000,0.000000, 0,0,0.000000,0.000000,2,0.005381,0.005381, 0,0.000000,0.000000,0,0.000000,0.000000,0, 0.000000,0.000000,0,0.000000,0.000000,0,0.000000, 0.000000,655360,655360,0
22,0,2,372711797427, 400804,0,146660,0,0,0,246697, 246697,246693.593750,246691.593750,153966,0,153963.875000,153963.875000, 141,0,140.998047,140.998047,246697,246693.593750,246691.593750, 153966,153963.875000,153963.875000,0,0.000000,0.000000,0, 0.000000,0.000000,0,0.000000,0.000000,0,0.000000, 0.000000,655360,655360,0
22,0,2,373711814301, 858655,0,132673,0,0,0,260827, 260827,130411.695312,14129.804688,597544,0,298767.875000,443571.875000, 284,0,141.998032,142.998016,260827,130411.695312,14129.804688, 597544,298767.875000,443571.875000,0,0.000000,0.000000,0, 0.000000,0.000000,0,0.000000,0.000000,0,0.000000, 0.000000,655360,655360,0
22,0,2,374711833006, 1321721,0,132680,0,0,0,260961, 260961,86984.851562,133.993759,1060335,0,353436.250000,462769.437500, 425,0,141.663162,140.993423,260961,86984.851562,133.993759, 1060335,353436.250000,462769.437500,0,0.000000,0.000000,0, 0.000000,0.000000,0,0.000000,0.000000,0,0.000000, 0.000000,655360,655360,0
22,0,2,375711843050, 1770748,0,132671,0,0,0,261109, 261109,65275.808594,147.997955,1509075,0,377260.437500,448733.781250, 564,0,140.996887,138.998077,261109,65275.808594,147.997955, 1509075,377260.437500,448733.781250,0,0.000000,0.000000,0, 0.000000,0.000000,0,0.000000,0.000000,0,0.000000, 0.000000,655360,655360,0
22,0,2,376711852743, 2222344,0,132675,0,0,0,261246, 261246,52248.476562,137.002594,1960393,0,392073.187500,451326.562500, 705,0,140.998047,141.002670,261246,52248.476562,137.002594, 1960393,392073.187500,451326.562500,0,0.000000,0.000000,0, 0.000000,0.000000,0,0.000000,0.000000,0,0.000000, 0.000000,655360,655360,0
22,0,2,377711862978, 2658753,0,132679,0,0,0,261383, 261383,43563.230469,136.998108,2396524,0,399415.156250,436124.968750, 846,0,140.998047,140.998047,261383,43563.230469,136.998108, 2396524,399415.156250,436124.968750,0,0.000000,0.000000,0, 0.000000,0.000000,0,0.000000,0.000000,0,0.000000, 0.000000,655360,655360,0
22,0,2,378711882152, 3100417,0,132694,0,0,0,261507, 261507,37357.625000,123.998283,2837925,0,405412.250000,441394.906250, 985,0,140.712341,138.998077,261507,37357.625000,123.998283, 2837925,405412.250000,441394.906250,0,0.000000,0.000000,0, 0.000000,0.000000,0,0.000000,0.000000,0,0.000000, 0.000000,655360,655360,0
22,0,2,379711893184, 3536162,0,132744,0,0,0,261644, 261644,32705.046875,136.998108,3273346,0,409162.593750,435414.968750, 1172,0,146.497971,186.997421,261644,32705.046875,136.998108, 3273346,409162.593750,435414.968750,0,0.000000,0.000000,0, 0.000000,0.000000,0,0.000000,0.000000,0,0.000000, 0.000000,655360,655360,0
22,0,2,380711918635, 3972723,0,132717,0,0,0,261800, 261800,29088.380859,155.992722,3709622,0,412173.031250,436255.656250, 1301,0,144.553024,128.993988,261800,29088.380859,155.992722, 3709622,412173.031250,436255.656250,0,0.000000,0.000000,0, 0.000000,0.000000,0,0.000000,0.000000,0,0.000000, 0.000000,655360,655360,0
22,0,2,381711927513, 4401734,0,132712,0,0,0,262013, 262013,26200.853516,212.997055,4138212,0,413814.125000,428584.062500, 1509,0,150.897430,207.997131,262013,26200.853516,212.997055, 4138212,413814.125000,428584.062500,0,0.000000,0.000000,0, 0.000000,0.000000,0,0.000000,0.000000,0,0.000000, 0.000000,655360,655360,0
22,0,2,382711935451, 4819284,0,132578,0,0,0,262288, 262288,23844.035156,275.005219,4555346,0,414116.656250,417141.906250, 1650,0,149.997925,141.002670,262288,23844.035156,275.005219, 4555346,414116.656250,417141.906250,0,0.000000,0.000000,0, 0.000000,0.000000,0,0.000000,0.000000,0,0.000000, 0.000000,655360,655360,0
22,0,2,383711948955, 5259315,0,132506,0,0,0,262497, 262497,21874.447266,208.997116,4995031,0,416246.812500,439678.906250, 1787,0,148.914612,136.998108,262497,21874.447266,208.997116, 4995031,416246.812500,439678.906250,0,0.000000,0.000000,0, 0.000000,0.000000,0,0.000000,0.000000,0,0.000000, 0.000000,655360,655360,0
22,0,2,384711974281, 5698842,0,132438,0,0,0,262706, 262706,20207.824219,208.990265,5434208,0,418009.156250,439156.531250, 1928,0,148.305267,140.993423,262706,20207.824219,208.990265, 5434208,418009.156250,439156.531250,0,0.000000,0.000000,0, 0.000000,0.000000,0,0.000000,0.000000,0,0.000000, 0.000000,655360,655360,0
22,0,2,385711988620, 6136335,0,132384,0,0,0,262881, 262881,18776.912109,174.997574,5871405,0,419379.312500,437190.968750, 2049,0,146.354782,120.998329,262881,18776.912109,174.997574, 5871405,419379.312500,437190.968750,0,0.000000,0.000000,0, 0.000000,0.000000,0,0.000000,0.000000,0,0.000000, 0.000000,655360,655360,0
22,0,2,386712005449, 6561419,0,132320,0,0,0,263054, 263054,17536.652344,172.997604,6296207,0,419740.406250,424796.125000, 2158,0,143.864365,108.998489,263054,17536.652344,172.997604, 6296207,419740.406250,424796.125000,0,0.000000,0.000000,0, 0.000000,0.000000,0,0.000000,0.000000,0,0.000000, 0.000000,655360,655360,0
22,0,2,387712014303, 6994975,0,132304,0,0,0,263197, 263197,16449.550781,142.998016,6729493,0,420586.656250,433280.000000, 2285,0,142.810242,126.998245,263197,16449.550781,142.998016, 6729493,420586.656250,433280.000000,0,0.000000,0.000000,0, 0.000000,0.000000,0,0.000000,0.000000,0,0.000000, 0.000000,655360,655360,0
22,0,2,388712031309, 7415199,0,132283,0,0,0,263359, 263359,15491.462891,161.997757,7149414,0,420547.156250,419915.187500, 2426,0,142.703644,140.998047,263359,15491.462891,161.997757, 7149414,420547.156250,419915.187500,0,0.000000,0.000000,0, 0.000000,0.000000,0,0.000000,0.000000,0,0.000000, 0.000000,655360,655360,0
22,0,2,389712050235, 7840738,0,132151,0,0,0,263633, 263633,14646.047852,273.996216,7574537,0,420801.000000,425117.125000, 2568,0,142.664429,141.998032,263633,14646.047852,273.996216, 7574537,420801.000000,425117.125000,0,0.000000,0.000000,0, 0.000000,0.000000,0,0.000000,0.000000,0,0.000000, 0.000000,655360,655360,0
22,0,2,390712064930, 8221992,0,132178,0,0,0,263740, 263740,13880.836914,106.998520,7955550,0,418706.656250,381007.718750, 2702,0,142.208313,133.998154,263740,13880.836914,106.998520, 7955550,418706.656250,381007.718750,0,0.000000,0.000000,0, 0.000000,0.000000,0,0.000000,0.000000,0,0.000000, 0.000000,655360,655360,0
22,0,2,391712096307, 8632478,0,132103,0,0,0,263954, 263954,13197.474609,213.990021,8365683,0,418277.000000,410113.875000, 2841,0,142.047577,138.993515,263954,13197.474609,213.990021, 8365683,418277.000000,410113.875000,0,0.000000,0.000000,0, 0.000000,0.000000,0,0.000000,0.000000,0,0.000000, 0.000000,655360,655360,0
22,0,2,392712105497, 9042402,0,131929,0,0,0,264259, 264259,12583.568359,305.005768,8775171,0,417858.875000,409495.750000, 2972,0,141.521637,131.002487,264259,12583.568359,305.005768, 8775171,417858.875000,409495.750000,0,0.000000,0.000000,0, 0.000000,0.000000,0,0.000000,0.000000,0,0.000000, 0.000000,655360,655360,0
22,0,2,393712114571, 9451998,0,131874,0,0,0,264426, 264426,12019.178711,166.997696,9184488,0,417470.312500,409311.343750, 3084,0,140.179672,111.998451,264426,12019.178711,166.997696, 9184488,417470.312500,409311.343750,0,0.000000,0.000000,0, 0.000000,0.000000,0,0.000000,0.000000,0,0.000000, 0.000000,655360,655360,0
22,0,2,394712123390, 9867959,0,131869,0,0,0,264565, 264565,11502.650391,138.998077,9600176,0,417392.593750,415682.250000, 3218,0,139.910904,133.998154,264565,11502.650391,138.998077, 9600176,417392.593750,415682.250000,0,0.000000,0.000000,0, 0.000000,0.000000,0,0.000000,0.000000,0,0.000000, 0.000000,655360,655360,0
22,0,2,395712132117, 10290149,0,131894,0,0,0,264648, 264648,11026.833008,82.998856,10022175,0,417584.281250,421993.156250, 3326,0,138.581223,107.998505,264648,11026.833008,82.998856, 10022175,417584.281250,421993.156250,0,0.000000,0.000000,0, 0.000000,0.000000,0,0.000000,0.000000,0,0.000000, 0.000000,655360,655360,0
22,0,2,396712143096, 10694569,0,131869,0,0,0,264809, 264809,10592.200195,160.997772,10426298,0,417045.625000,404117.406250, 3462,0,138.477905,135.998123,264809,10592.200195,160.997772, 10426298,417045.625000,404117.406250,0,0.000000,0.000000,0, 0.000000,0.000000,0,0.000000,0.000000,0,0.000000, 0.000000,655360,655360,0
22,0,2,397712282376, 11106078,0,131828,0,0,0,264981, 264981,10191.372070,171.975098,10837504,0,416818.687500,411146.437500, 3593,0,138.189529,130.981033,264981,10191.372070,171.975098, 10837504,416818.687500,411146.437500,0,0.000000,0.000000,0, 0.000000,0.000000,0,0.000000,0.000000,0,0.000000, 0.000000,655360,655360,0
22,0,2,398712290926, 11519709,0,131771,0,0,0,265150, 265150,9820.187500,169.003204,11250854,0,416690.531250,413357.843750, 3705,0,137.219666,112.002121,265150,9820.187500,169.003204, 11250854,416690.531250,413357.843750,0,0.000000,0.000000,0, 0.000000,0.000000,0,0.000000,0.000000,0,0.000000, 0.000000,655360,655360,0
22,0,2,399712324126, 11883706,0,131774,0,0,0,265257, 265257,9473.277344,106.995010,11614634,0,414800.187500,363763.031250, 3815,0,136.247314,109.994873,265257,9473.277344,106.995010, 11614634,414800.187500,363763.031250,0,0.000000,0.000000,0, 0.000000,0.000000,0,0.000000,0.000000,0,0.000000, 0.000000,655360,655360,0
22,0,2,400712334114, 12308332,0,131701,0,0,0,265458, 265458,9153.545898,200.997223,12038931,0,415127.468750,424291.125000, 3943,0,135.962875,127.998230,265458,9153.545898,200.997223, 12038931,415127.468750,424291.125000,0,0.000000,0.000000,0, 0.000000,0.000000,0,0.000000,0.000000,0,0.000000, 0.000000,655360,655360,0
22,0,2,401712345211, 12734233,0,131703,0,0,0,265595, 265595,8852.996094,136.998108,12464556,0,415477.187500,425619.125000, 4082,0,136.064041,138.998077,265595,8852.996094,136.998108, 12464556,415477.187500,425619.125000,0,0.000000,0.000000,0, 0.000000,0.000000,0,0.000000,0.000000,0,0.000000, 0.000000,655360,655360,0
22,0,2,402712356223, 13161656,0,131669,0,0,0,265761, 265761,8572.771484,165.997711,12891681,0,415852.718750,427119.093750, 4214,0,135.932877,131.998169,265761,8572.771484,165.997711, 12891681,415852.718750,427119.093750,0,0.000000,0.000000,0, 0.000000,0.000000,0,0.000000,0.000000,0,0.000000, 0.000000,655360,655360,0
22,0,2,403712364917, 13578970,0,131595,0,0,0,265975, 265975,8311.561523,213.997040,13308641,0,415887.156250,416954.218750, 4354,0,136.059921,139.998062,265975,8311.561523,213.997040, 13308641,415887.156250,416954.218750,0,0.000000,0.000000,0, 0.000000,0.000000,0,0.000000,0.000000,0,0.000000, 0.000000,655360,655360,0
22,0,2,404712378720, 13996981,0,131649,0,0,0,266060, 266060,8062.272461,84.998825,13726428,0,415944.531250,417781.218750, 4493,0,136.148956,138.998077,266060,8062.272461,84.998825, 13726428,415944.531250,417781.218750,0,0.000000,0.000000,0, 0.000000,0.000000,0,0.000000,0.000000,0,0.000000, 0.000000,655360,655360,0
22,0,2,405712386936, 14412668,0,131604,0,0,0,266237, 266237,7830.361328,177.003357,14141806,0,415928.093750,415385.875000, 4625,0,136.026993,132.002502,266237,7830.361328,177.003357, 14141806,415928.093750,415385.875000,0,0.000000,0.000000,0, 0.000000,0.000000,0,0.000000,0.000000,0,0.000000, 0.000000,655360,655360,0
22,0,2,406712396059, 14809201,0,131613,0,0,0,266368, 266368,7610.380859,130.998184,14538068,0,415366.093750,396256.531250, 4765,0,136.140472,139.998062,266368,7610.380859,130.998184, 14538068,415366.093750,396256.531250,0,0.000000,0.000000,0, 0.000000,0.000000,0,0.000000,0.000000,0,0.000000, 0.000000,655360,655360,0
22,0,2,407712416746, 15227242,0,131607,0,0,0,266510, 266510,7402.919922,141.993378,14955831,0,415432.125000,417743.531250, 4901,0,136.136398,135.993668,266510,7402.919922,141.993378, 14955831,415432.125000,417743.531250,0,0.000000,0.000000,0, 0.000000,0.000000,0,0.000000,0.000000,0,0.000000, 0.000000,655360,655360,0
22,0,2,408712425777, 15647584,0,131602,0,0,0,266593, 266593,7205.091309,83.001572,15376012,0,415560.687500,420188.968750, 4979,0,134.565231,78.001480,266593,7205.091309,83.001572, 15376012,415560.687500,420188.968750,0,0.000000,0.000000,0, 0.000000,0.000000,0,0.000000,0.000000,0,0.000000, 0.000000,655360,655360,0
22,0,2,409712442596, 16042336,0,131542,0,0,0,266793, 266793,7020.747070,199.997238,15770424,0,415004.000000,394406.531250, 5119,0,134.708206,139.998062,266793,7020.747070,199.997238, 15770424,415004.000000,394406.531250,0,0.000000,0.000000,0, 0.000000,0.000000,0,0.000000,0.000000,0,0.000000, 0.000000,655360,655360,0
22,0,2,410712455653, 16448147,0,131464,0,0,0,266984, 266984,6845.625977,190.997360,16175931,0,414760.312500,405501.406250, 5232,0,134.151535,112.998436,266984,6845.625977,190.997360, 16175931,414760.312500,405501.406250,0,0.000000,0.000000,0, 0.000000,0.000000,0,0.000000,0.000000,0,0.000000, 0.000000,655360,655360,0
22,0,2,411712480992, 16846690,0,131127,0,0,0,267540, 267540,6688.379883,555.974060,16573699,0,414335.031250,397749.468750, 5451,0,136.272552,218.989792,267540,6688.379883,555.974060, 16573699,414335.031250,397749.468750,0,0.000000,0.000000,0, 0.000000,0.000000,0,0.000000,0.000000,0,0.000000, 0.000000,655360,655360,0
22,0,2,412712489587, 17272311,0,131079,0,0,0,271246, 271246,6615.637695,3705.948730,16991956,0,414430.562500,418251.218750, 9109,0,222.166763,3657.949463,271246,6615.637695,3705.948730, 16991956,414430.562500,418251.218750,0,0.000000,0.000000,0, 0.000000,0.000000,0,0.000000,0.000000,0,0.000000, 0.000000,655360,655360,0
22,0,2,413712501549, 17667211,0,131074,0,0,0,275786, 275786,6566.216797,4539.937012,17377781,0,413749.343750,385818.656250, 13644,0,324.851379,4534.937500,275786,6566.216797,4539.937012, 17377781,413749.343750,385818.656250,0,0.000000,0.000000,0, 0.000000,0.000000,0,0.000000,0.000000,0,0.000000, 0.000000,655360,655360,0
22,0,2,414713736288, 18089277,0,131079,0,0,0,280980, 280980,6534.119141,5187.639160,17789454,0,413689.250000,411169.843750, 18843,0,438.189209,5192.632812,280980,6534.119141,5187.639160, 17789454,413689.250000,411169.843750,0,0.000000,0.000000,0, 0.000000,0.000000,0,0.000000,0.000000,0,0.000000, 0.000000,655360,655360,0
22,0,2,415713748334, 18473050,0,131074,0,0,0,285661, 285661,6492.002930,4680.935059,18163870,0,412796.625000,374410.812500, 23519,0,534.498657,4675.935547,285661,6492.002930,4680.935059, 18163870,412796.625000,374410.812500,0,0.000000,0.000000,0, 0.000000,0.000000,0,0.000000,0.000000,0,0.000000, 0.000000,655360,655360,0
22,0,2,416713755797, 18836198,0,131079,0,0,0,291022, 291022,6466.868164,5360.925781,18516291,0,411454.875000,352417.125000, 28885,0,641.860352,5365.925781,291022,6466.868164,5360.925781, 18516291,411454.875000,352417.125000,0,0.000000,0.000000,0, 0.000000,0.000000,0,0.000000,0.000000,0,0.000000, 0.000000,655360,655360,0
22,0,2,417713766639, 19257057,0,131074,0,0,0,296586, 296586,6447.239746,5563.922852,18926027,0,411417.406250,409730.343750, 34444,0,748.749878,5558.923340,296586,6447.239746,5563.922852, 18926027,411417.406250,409730.343750,0,0.000000,0.000000,0, 0.000000,0.000000,0,0.000000,0.000000,0,0.000000, 0.000000,655360,655360,0
22,0,2,418713783462, 19685375,0,131076,0,0,0,302355, 302355,6432.808105,5768.920410,19342805,0,411531.281250,416770.250000, 40215,0,855.601440,5770.920410,302355,6432.808105,5768.920410, 19342805,411531.281250,416770.250000,0,0.000000,0.000000,0, 0.000000,0.000000,0,0.000000,0.000000,0,0.000000, 0.000000,655360,655360,0
22,0,2,419713794625, 20112340,0,131076,0,0,0,308341, 308341,6423.497559,5985.916992,19757798,0,411603.281250,414988.250000, 46201,0,962.479919,5985.916992,308341,6423.497559,5985.916992, 19757798,411603.281250,414988.250000,0,0.000000,0.000000,0, 0.000000,0.000000,0,0.000000,0.000000,0,0.000000, 0.000000,655360,655360,0
22,0,2,420714385003, 20502306,0,131079,0,0,0,313503, 313503,6397.679688,5159.054688,20137437,0,410946.187500,379421.406250, 51366,0,1048.229858,5162.053223,313503,6397.679688,5159.054688, 20137437,410946.187500,379421.406250,0,0.000000,0.000000,0, 0.000000,0.000000,0,0.000000,0.000000,0,0.000000, 0.000000,655360,655360,0
22,0,2,421714394928, 20928647,0,131074,0,0,0,319726, 319726,6394.184570,6222.914062,20551337,0,411005.156250,413894.281250, 57584,0,1151.619507,6217.914062,319726,6394.184570,6222.914062, 20551337,411005.156250,413894.281250,0,0.000000,0.000000,0, 0.000000,0.000000,0,0.000000,0.000000,0,0.000000, 0.000000,655360,655360,0
22,0,2,422714409306, 21327065,0,131074,0,0,0,325544, 325544,6382.885254,5817.919434,20938119,0,410530.125000,386778.656250, 63402,0,1243.112183,5817.919434,325544,6382.885254,5817.919434, 20938119,410530.125000,386778.656250,0,0.000000,0.000000,0, 0.000000,0.000000,0,0.000000,0.000000,0,0.000000, 0.000000,655360,655360,0
22,0,2,423714426930, 21743962,0,131103,0,0,0,331957, 331957,6383.462891,6412.911133,21342161,0,410405.218750,404034.406250, 69844,0,1343.085327,6441.911133,331957,6383.462891,6412.911133, 21342161,410405.218750,404034.406250,0,0.000000,0.000000,0, 0.000000,0.000000,0,0.000000,0.000000,0,0.000000, 0.000000,655360,655360,0
22,0,2,424714437010, 22162632,0,131120,0,0,0,337817, 337817,6373.584961,5859.918945,21749094,0,410339.625000,406928.375000, 75721,0,1428.626221,5876.918945,337817,6373.584961,5859.918945, 21749094,410339.625000,406928.375000,0,0.000000,0.000000,0, 0.000000,0.000000,0,0.000000,0.000000,0,0.000000, 0.000000,655360,655360,0
22,0,2,425714446489, 22575380,0,131078,0,0,0,344169, 344169,6373.184082,6351.912109,22149180,0,410149.656250,400080.468750, 82031,0,1519.017212,6309.912598,344169,6373.184082,6351.912109, 22149180,410149.656250,400080.468750,0,0.000000,0.000000,0, 0.000000,0.000000,0,0.000000,0.000000,0,0.000000, 0.000000,655360,655360,0
22,0,2,426714455596, 22974880,0,131074,0,0,0,349412, 349412,6352.634277,5242.927734,22538198,0,409765.343750,389012.625000, 87270,0,1586.649536,5238.927734,349412,6352.634277,5242.927734, 22538198,409765.343750,389012.625000,0,0.000000,0.000000,0, 0.000000,0.000000,0,0.000000,0.000000,0,0.000000, 0.000000,655360,655360,0
22,0,2,427714464989, 23371849,0,131074,0,0,0,355548, 355548,6348.764160,6135.915039,22922895,0,409317.625000,384692.687500, 93406,0,1667.883667,6135.915039,355548,6348.764160,6135.915039, 22922895,409317.625000,384692.687500,0,0.000000,0.000000,0, 0.000000,0.000000,0,0.000000,0.000000,0,0.000000, 0.000000,655360,655360,0
22,0,2,428717005977, 23773240,0,131071,0,0,0,361780, 361780,6346.433594,6216.229492,23311825,0,408941.750000,387943.781250, 99635,0,1747.821655,6213.236816,361780,6346.433594,6216.229492, 23311825,408941.750000,387943.781250,0,0.000000,0.000000,0, 0.000000,0.000000,0,0.000000,0.000000,0,0.000000, 0.000000,655360,655360,0
22,0,2,429717019815, 24151095,0,131074,0,0,0,367484, 367484,6335.356934,5703.920898,23678269,0,408209.000000,366438.937500, 105342,0,1816.076782,5706.920898,367484,6335.356934,5703.920898, 23678269,408209.000000,366438.937500,0,0.000000,0.000000,0, 0.000000,0.000000,0,0.000000,0.000000,0,0.000000, 0.000000,655360,655360,0
22,0,2,430717611298, 24566859,0,131074,0,0,0,373891, 373891,6336.509766,6403.344238,24081219,0,408115.937500,402722.093750, 111749,0,1893.863770,6403.344238,373891,6336.509766,6403.344238, 24081219,408115.937500,402722.093750,0,0.000000,0.000000,0, 0.000000,0.000000,0,0.000000,0.000000,0,0.000000, 0.000000,655360,655360,0
22,0,2,431717622248, 24976728,0,131074,0,0,0,380805, 380805,6346.131836,6913.904297,24477260,0,407914.593750,396034.531250, 118663,0,1977.524048,6913.904297,380805,6346.131836,6913.904297, 24477260,407914.593750,396034.531250,0,0.000000,0.000000,0, 0.000000,0.000000,0,0.000000,0.000000,0,0.000000, 0.000000,655360,655360,0
22,0,2,432717664159, 25379141,0,131073,0,0,0,386929, 386929,6342.485840,6123.714355,24867426,0,407623.375000,390147.812500, 124786,0,2045.474609,6122.714844,386929,6342.485840,6123.714355, 24867426,407623.375000,390147.812500,0,0.000000,0.000000,0, 0.000000,0.000000,0,0.000000,0.000000,0,0.000000, 0.000000,655360,655360,0
22,0,2,433717848067, 25784572,0,131074,0,0,0,393929, 393929,6353.072266,6998.756836,25258856,0,407361.062500,391360.500000, 131787,0,2125.388916,6999.756836,393929,6353.072266,6998.756836, 25258856,407361.062500,391360.500000,0,0.000000,0.000000,0, 0.000000,0.000000,0,0.000000,0.000000,0,0.000000, 0.000000,655360,655360,0
22,0,2,434717905910, 26185312,0,131073,0,0,0,399866, 399866,6346.460449,5936.528809,25647723,0,407067.031250,388837.125000, 137723,0,2185.866211,5935.528809,399866,6346.460449,5936.528809, 25647723,407067.031250,388837.125000,0,0.000000,0.000000,0, 0.000000,0.000000,0,0.000000,0.000000,0,0.000000, 0.000000,655360,655360,0
22,0,2,435717914759, 26580472,0,131109,0,0,0,405890, 405890,6341.421387,6023.916504,26030799,0,406692.125000,383070.687500, 143783,0,2246.393311,6059.916016,405890,6341.421387,6023.916504, 26030799,406692.125000,383070.687500,0,0.000000,0.000000,0, 0.000000,0.000000,0,0.000000,0.000000,0,0.000000, 0.000000,655360,655360,0
22,0,2,436717929585, 26986978,0,131074,0,0,0,413636, 413636,6363.026367,7745.893066,26421848,0,406451.375000,391042.593750, 151494,0,2330.455566,7710.893555,413636,6363.026367,7745.893066, 26421848,406451.375000,391042.593750,0,0.000000,0.000000,0, 0.000000,0.000000,0,0.000000,0.000000,0,0.000000, 0.000000,655360,655360,0
22,0,2,437718182475, 27385475,0,131074,0,0,0,420358, 420358,6368.441406,6720.365723,26806901,0,406125.656250,384958.375000, 158216,0,2396.979004,6720.365723,420358,6368.441406,6720.365723, 26806901,406125.656250,384958.375000,0,0.000000,0.000000,0, 0.000000,0.000000,0,0.000000,0.000000,0,0.000000, 0.000000,655360,655360,0
22,0,2,438718558390, 27777656,0,131074,0,0,0,427073, 427073,6373.578125,6712.487305,27185652,0,405714.875000,378610.281250, 164931,0,2461.407227,6712.487305,427073,6373.578125,6712.487305, 27185652,405714.875000,378610.281250,0,0.000000,0.000000,0, 0.000000,0.000000,0,0.000000,0.000000,0,0.000000, 0.000000,655360,655360,0
22,0,2,439718567307, 28180815,0,131074,0,0,0,433923, 433923,6380.582031,6849.905273,27575111,0,405475.781250,389454.625000, 171781,0,2525.938477,6849.905273,433923,6380.582031,6849.905273, 27575111,405475.781250,389454.625000,0,0.000000,0.000000,0, 0.000000,0.000000,0,0.000000,0.000000,0,0.000000, 0.000000,655360,655360,0
22,0,2,440721631302, 28589135,0,131074,0,0,0,442411, 442411,6410.836914,8462.094727,27966455,0,405253.031250,390149.625000, 180269,0,2612.220703,8462.094727,442411,6410.836914,8462.094727, 27966455,405253.031250,390149.625000,0,0.000000,0.000000,0, 0.000000,0.000000,0,0.000000,0.000000,0,0.000000, 0.000000,655360,655360,0
22,0,2,441721644981, 28990413,0,131074,0,0,0,449837, 449837,6425.335938,7425.897461,28352881,0,404983.968750,386418.656250, 187695,0,2680.978760,7425.897461,449837,6425.335938,7425.897461, 28352881,404983.968750,386418.656250,0,0.000000,0.000000,0, 0.000000,0.000000,0,0.000000,0.000000,0,0.000000, 0.000000,655360,655360,0
22,0,2,442721662643, 29404215,0,131074,0,0,0,457540, 457540,6443.327148,7702.893555,28751277,0,404891.125000,398390.500000, 195398,0,2751.700928,7702.893555,457540,6443.327148,7702.893555, 28751277,404891.125000,398390.500000,0,0.000000,0.000000,0, 0.000000,0.000000,0,0.000000,0.000000,0,0.000000, 0.000000,655360,655360,0
22,0,2,443721670076, 29809787,0,131074,0,0,0,465109, 465109,6458.958008,7568.895508,29141711,0,404690.281250,390430.593750, 202967,0,2818.598145,7568.895508,465109,6458.958008,7568.895508, 29141711,404690.281250,390430.593750,0,0.000000,0.000000,0, 0.000000,0.000000,0,0.000000,0.000000,0,0.000000, 0.000000,655360,655360,0
22,0,2,444721678520, 30213666,0,131074,0,0,0,472758, 472758,6475.256348,7648.894043,29530292,0,404469.562500,388574.625000, 210616,0,2884.758545,7648.894043,472758,6475.256348,7648.894043, 29530292,404469.562500,388574.625000,0,0.000000,0.000000,0, 0.000000,0.000000,0,0.000000,0.000000,0,0.000000, 0.000000,655360,655360,0
22,0,2,445721687545, 30604240,0,131074,0,0,0,480482, 480482,6492.131348,7724.146484,29905418,0,404073.187500,375133.125000, 218340,0,2950.145752,7724.146484,480482,6492.131348,7724.146484, 29905418,404073.187500,375133.125000,0,0.000000,0.000000,0, 0.000000,0.000000,0,0.000000,0.000000,0,0.000000, 0.000000,655360,655360,0
22,0,2,446721695808, 31001744,0,131074,0,0,0,488597, 488597,6513.765137,8114.887695,30286692,0,403769.156250,381268.718750, 226455,0,3019.000732,8114.887695,488597,6513.765137,8114.887695, 30286692,403769.156250,381268.718750,0,0.000000,0.000000,0, 0.000000,0.000000,0,0.000000,0.000000,0,0.000000, 0.000000,655360,655360,0
22,0,2,447721703825, 31391149,0,131100,0,0,0,498320, 498320,6555.985352,9722.865234,30656625,0,403323.906250,369926.875000, 236204,0,3107.541260,9748.865234,498320,6555.985352,9722.865234, 30656625,403323.906250,369926.875000,0,0.000000,0.000000,0, 0.000000,0.000000,0,0.000000,0.000000,0,0.000000, 0.000000,655360,655360,0
22,0,2,448721712812, 31780681,0,131038,0,0,0,505729, 505729,6567.061035,7408.897461,31031401,0,402953.156250,374770.812500, 243551,0,3162.591797,7346.898438,505729,6567.061035,7408.897461, 31031401,402953.156250,374770.812500,0,0.000000,0.000000,0, 0.000000,0.000000,0,0.000000,0.000000,0,0.000000, 0.000000,655360,655360,0
22,0,2,449722897062, 32181455,0,131088,0,0,0,514315, 514315,6592.840332,8575.764648,31414953,0,402698.281250,383094.781250, 252187,0,3232.705078,8625.705078,514315,6592.840332,8575.764648, 31414953,402698.281250,383094.781250,0,0.000000,0.000000,0, 0.000000,0.000000,0,0.000000,0.000000,0,0.000000, 0.000000,655360,655360,0
22,0,2,450722905350, 32578269,0,131078,0,0,0,523656, 523656,6627.624512,9341.176758,31793095,0,402387.625000,378151.156250, 261518,0,3309.888672,9331.176758,523656,6627.624512,9341.176758, 31793095,402387.625000,378151.156250,0,0.000000,0.000000,0, 0.000000,0.000000,0,0.000000,0.000000,0,0.000000, 0.000000,655360,655360,0
22,0,2,451722921893, 32969308,0,131074,0,0,0,532003, 532003,6649.109375,8346.611328,32167444,0,402036.906250,374330.562500, 269861,0,3372.791504,8342.611328,532003,6649.109375,8346.611328, 32167444,402036.906250,374330.562500,0,0.000000,0.000000,0, 0.000000,0.000000,0,0.000000,0.000000,0,0.000000, 0.000000,655360,655360,0
22,0,2,452722946924, 33371684,0,131078,0,0,0,541254, 541254,6681.226074,9250.872070,32551314,0,401812.625000,383864.687500, 279116,0,3445.401123,9254.872070,541254,6681.226074,9250.872070, 32551314,401812.625000,383864.687500,0,0.000000,0.000000,0, 0.000000,0.000000,0,0.000000,0.000000,0,0.000000, 0.000000,655360,655360,0
22,0,2,453722964870, 33769979,0,131074,0,0,0,549652, 549652,6702.158203,8397.883789,32932817,0,401564.906250,381496.718750, 287510,0,3505.740967,8393.883789,549652,6702.158203,8397.883789, 32932817,401564.906250,381496.718750,0,0.000000,0.000000,0, 0.000000,0.000000,0,0.000000,0.000000,0,0.000000, 0.000000,655360,655360,0
22,0,2,454725094640, 34164338,0,131074,0,0,0,558669, 558669,6729.870605,8997.710938,33309142,0,401250.500000,375520.968750, 296527,0,3572.040527,8997.710938,558669,6729.870605,8997.710938, 33309142,401250.500000,375520.968750,0,0.000000,0.000000,0, 0.000000,0.000000,0,0.000000,0.000000,0,0.000000, 0.000000,655360,655360,0
22,0,2,455725103504, 34545418,0,131074,0,0,0,570141, 570141,6786.316895,11472.217773,33667278,0,400737.406250,358144.781250, 307999,0,3666.073486,11472.217773,570141,6786.316895,11472.217773, 33667278,400737.406250,358144.781250,0,0.000000,0.000000,0, 0.000000,0.000000,0,0.000000,0.000000,0,0.000000, 0.000000,655360,655360,0
22,0,2,456726259109, 34926834,0,131077,0,0,0,580104, 580104,6823.590332,9951.449219,34028765,0,400270.218750,361064.906250, 317965,0,3740.127441,9954.445312,580104,6823.590332,9951.449219, 34028765,400270.218750,361064.906250,0,0.000000,0.000000,0, 0.000000,0.000000,0,0.000000,0.000000,0,0.000000, 0.000000,655360,655360,0
22,0,2,457726267731, 35288262,0,131074,0,0,0,592287, 592287,6885.897461,12182.831055,34365830,0,399535.343750,337063.343750, 330145,0,3838.248291,12179.832031,592287,6885.897461,12182.831055, 34365830,399535.343750,337063.343750,0,0.000000,0.000000,0, 0.000000,0.000000,0,0.000000,0.000000,0,0.000000, 0.000000,655360,655360,0
22,0,2,458727570154, 35698212,0,131074,0,0,0,604988, 604988,6952.623535,12684.614258,34750378,0,399357.156250,384047.906250, 342846,0,3940.043701,12684.614258,604988,6952.623535,12684.614258, 34750378,399357.156250,384047.906250,0,0.000000,0.000000,0, 0.000000,0.000000,0,0.000000,0.000000,0,0.000000, 0.000000,655360,655360,0
22,0,2,459727578240, 36105340,0,131074,0,0,0,618211, 618211,7023.863770,13222.817383,35131060,0,399144.937500,380678.750000, 356069,0,4045.512207,13222.817383,618211,7023.863770,13222.817383, 35131060,399144.937500,380678.750000,0,0.000000,0.000000,0, 0.000000,0.000000,0,0.000000,0.000000,0,0.000000, 0.000000,655360,655360,0
22,0,2,460727589844, 36498937,0,131074,0,0,0,629563, 629563,7072.484863,11351.842773,35501953,0,398827.468750,370886.875000, 367421,0,4127.592285,11351.842773,629563,7072.484863,11351.842773, 35501953,398827.468750,370886.875000,0,0.000000,0.000000,0, 0.000000,0.000000,0,0.000000,0.000000,0,0.000000, 0.000000,655360,655360,0
22,0,2,461727608381, 36883760,0,131074,0,0,0,641695, 641695,7128.690918,12131.832031,35862512,0,398402.312500,360555.000000, 379553,0,4216.514160,12131.832031,641695,7128.690918,12131.832031, 35862512,398402.312500,360555.000000,0,0.000000,0.000000,0, 0.000000,0.000000,0,0.000000,0.000000,0,0.000000, 0.000000,655360,655360,0
22,0,2,462727620348, 37258199,0,131074,0,0,0,655353, 655353,7200.428223,13657.811523,36209635,0,397838.843750,347119.187500, 393211,0,4320.248047,13657.811523,655353,7200.428223,13657.811523, 36209635,397838.843750,347119.187500,0,0.000000,0.000000,0, 0.000000,0.000000,0,0.000000,0.000000,0,0.000000, 0.000000,655360,655360,0
22,0,2,463727628736, 37662155,0,131074,0,0,0,673324, 673324,7317.478027,17970.751953,36577649,0,397514.625000,368006.906250, 411182,0,4468.599609,17970.751953,673324,7317.478027,17970.751953, 36577649,397514.625000,368006.906250,0,0.000000,0.000000,0, 0.000000,0.000000,0,0.000000,0.000000,0,0.000000, 0.000000,655360,655360,0
22,0,2,464727637373, 38063847,0,131074,0,0,0,688754, 688754,7404.693359,15429.787109,36948481,0,397227.687500,370826.875000, 426612,0,4586.443359,15429.787109,688754,7404.693359,15429.787109, 36948481,397227.687500,370826.875000,0,0.000000,0.000000,0, 0.000000,0.000000,0,0.000000,0.000000,0,0.000000, 0.000000,655360,655360,0
22,0,2,465727648574, 38465648,0,131072,0,0,0,701336, 701336,7459.760742,12581.826172,37325120,0,397008.656250,376634.781250, 439192,0,4671.465820,12579.826172,701336,7459.760742,12581.826172, 37325120,397008.656250,376634.781250,0,0.000000,0.000000,0, 0.000000,0.000000,0,0.000000,0.000000,0,0.000000, 0.000000,655360,655360,0
22,0,2,466727698730, 38863731,0,131074,0,0,0,713544, 713544,7509.729980,12207.430664,37698785,0,396762.781250,373646.593750, 451402,0,4750.803223,12209.430664,713544,7509.729980,12207.430664, 37698785,396762.781250,373646.593750,0,0.000000,0.000000,0, 0.000000,0.000000,0,0.000000,0.000000,0,0.000000, 0.000000,655360,655360,0
22,0,2,467727708051, 39267630,0,131074,0,0,0,726199, 726199,7563.316895,12654.825195,38077374,0,396573.468750,378586.750000, 464057,0,4833.124512,12654.825195,726199,7563.316895,12654.825195, 38077374,396573.468750,378586.750000,0,0.000000,0.000000,0, 0.000000,0.000000,0,0.000000,0.000000,0,0.000000, 0.000000,655360,655360,0
22,0,2,468728019289, 39665019,0,131081,0,0,0,737276, 737276,7599.510254,11073.581055,38452602,0,396352.156250,375108.187500, 475141,0,4897.540527,11080.579102,737276,7599.510254,11073.581055, 38452602,396352.156250,375108.187500,0,0.000000,0.000000,0, 0.000000,0.000000,0,0.000000,0.000000,0,0.000000, 0.000000,655360,655360,0
22,0,2,469728027372, 40053140,0,131069,0,0,0,749052, 749052,7642.119141,11775.836914,38817183,0,396027.968750,364578.968750, 486905,0,4967.593750,11763.836914,749052,7642.119141,11775.836914, 38817183,396027.968750,364578.968750,0,0.000000,0.000000,0, 0.000000,0.000000,0,0.000000,0.000000,0,0.000000, 0.000000,655360,655360,0
22,0,2,470728035593, 40459402,0,131074,0,0,0,764472, 764472,7720.669922,15419.787109,39192600,0,395819.750000,375410.812500, 502330,0,5073.206055,15424.787109,764472,7720.669922,15419.787109, 39192600,395819.750000,375410.812500,0,0.000000,0.000000,0, 0.000000,0.000000,0,0.000000,0.000000,0,0.000000, 0.000000,655360,655360,0
