digraph G {
	node_19 [shape=circle,label="19"];
	node_20 [shape=circle,label="20"];
	node_1172333846 [shape=circle,label="1172333846"];
	node_1171168985 [shape=circle,label="1171168985"];

	node_1172333846 -> node_744093 [label="748650"];
	node_1171168985 -> node_26521 [label="5000211398285633534"];
}