%!PS-Adobe-3.0
%%Creator: graphviz version 2.41.20170306.1813 (20170306.1813)
%%Title: G
%%Pages: (atend)
%%BoundingBox: (atend)
%%EndComments
save
%%BeginProlog
/DotDict 200 dict def
DotDict begin

/setupLatin1 {
mark
/EncodingVector 256 array def
 EncodingVector 0

ISOLatin1Encoding 0 255 getinterval putinterval
EncodingVector 45 /hyphen put

% Set up ISO Latin 1 character encoding
/starnetISO {
        dup dup findfont dup length dict begin
        { 1 index /FID ne { def }{ pop pop } ifelse
        } forall
        /Encoding EncodingVector def
        currentdict end definefont
} def
/Times-Roman starnetISO def
/Times-Italic starnetISO def
/Times-Bold starnetISO def
/Times-BoldItalic starnetISO def
/Helvetica starnetISO def
/Helvetica-Oblique starnetISO def
/Helvetica-Bold starnetISO def
/Helvetica-BoldOblique starnetISO def
/Courier starnetISO def
/Courier-Oblique starnetISO def
/Courier-Bold starnetISO def
/Courier-BoldOblique starnetISO def
cleartomark
} bind def

%%BeginResource: procset graphviz 0 0
/coord-font-family /Times-Roman def
/default-font-family /Times-Roman def
/coordfont coord-font-family findfont 8 scalefont def

/InvScaleFactor 1.0 def
/set_scale {
       dup 1 exch div /InvScaleFactor exch def
       scale
} bind def

% styles
/solid { [] 0 setdash } bind def
/dashed { [9 InvScaleFactor mul dup ] 0 setdash } bind def
/dotted { [1 InvScaleFactor mul 6 InvScaleFactor mul] 0 setdash } bind def
/invis {/fill {newpath} def /stroke {newpath} def /show {pop newpath} def} bind def
/bold { 2 setlinewidth } bind def
/filled { } bind def
/unfilled { } bind def
/rounded { } bind def
/diagonals { } bind def
/tapered { } bind def

% hooks for setting color 
/nodecolor { sethsbcolor } bind def
/edgecolor { sethsbcolor } bind def
/graphcolor { sethsbcolor } bind def
/nopcolor {pop pop pop} bind def

/beginpage {	% i j npages
	/npages exch def
	/j exch def
	/i exch def
	/str 10 string def
	npages 1 gt {
		gsave
			coordfont setfont
			0 0 moveto
			(\() show i str cvs show (,) show j str cvs show (\)) show
		grestore
	} if
} bind def

/set_font {
	findfont exch
	scalefont setfont
} def

% draw text fitted to its expected width
/alignedtext {			% width text
	/text exch def
	/width exch def
	gsave
		width 0 gt {
			[] 0 setdash
			text stringwidth pop width exch sub text length div 0 text ashow
		} if
	grestore
} def

/boxprim {				% xcorner ycorner xsize ysize
		4 2 roll
		moveto
		2 copy
		exch 0 rlineto
		0 exch rlineto
		pop neg 0 rlineto
		closepath
} bind def

/ellipse_path {
	/ry exch def
	/rx exch def
	/y exch def
	/x exch def
	matrix currentmatrix
	newpath
	x y translate
	rx ry scale
	0 0 1 0 360 arc
	setmatrix
} bind def

/endpage { showpage } bind def
/showpage { } def

/layercolorseq
	[	% layer color sequence - darkest to lightest
		[0 0 0]
		[.2 .8 .8]
		[.4 .8 .8]
		[.6 .8 .8]
		[.8 .8 .8]
	]
def

/layerlen layercolorseq length def

/setlayer {/maxlayer exch def /curlayer exch def
	layercolorseq curlayer 1 sub layerlen mod get
	aload pop sethsbcolor
	/nodecolor {nopcolor} def
	/edgecolor {nopcolor} def
	/graphcolor {nopcolor} def
} bind def

/onlayer { curlayer ne {invis} if } def

/onlayers {
	/myupper exch def
	/mylower exch def
	curlayer mylower lt
	curlayer myupper gt
	or
	{invis} if
} def

/curlayer 0 def

%%EndResource
%%EndProlog
%%BeginSetup
14 default-font-family set_font
% /arrowlength 10 def
% /arrowwidth 5 def

% make sure pdfmark is harmless for PS-interpreters other than Distiller
/pdfmark where {pop} {userdict /pdfmark /cleartomark load put} ifelse
% make '<<' and '>>' safe on PS Level 1 devices
/languagelevel where {pop languagelevel}{1} ifelse
2 lt {
    userdict (<<) cvn ([) cvn load put
    userdict (>>) cvn ([) cvn load put
} if

%%EndSetup
setupLatin1
%%Page: 1 1
%%PageBoundingBox: 36 36 146 179
%%PageOrientation: Portrait
0 0 1 beginpage
gsave
36 36 110 143 boxprim clip newpath
1 1 set_scale 0 rotate 40 40 translate
% node_19
gsave
1 setlinewidth
0 0 0 nodecolor
20.7954 114.3863 20.5929 20.5929 ellipse_path stroke
0 0 0 nodecolor
14 /Times-Roman set_font
13.2954 109.7863 moveto 15 (19) alignedtext
grestore
% node_20
gsave
1 setlinewidth
0 0 0 nodecolor
50.7954 20.7954 20.5929 20.5929 ellipse_path stroke
0 0 0 nodecolor
14 /Times-Roman set_font
43.2954 16.1954 moveto 15 (20) alignedtext
grestore
% node_19->node_20
gsave
1 setlinewidth
0 0 0 edgecolor
newpath 23.1345 93.4629 moveto
24.6639 83.0901 27.0855 70.484 30.7954 59.5909 curveto
32.1047 55.7465 33.7423 51.8115 35.5134 47.9923 curveto
stroke
0 0 0 edgecolor
newpath 38.7404 49.3644 moveto
40.08 38.8546 lineto
32.4788 46.2351 lineto
closepath fill
1 setlinewidth
solid
0 0 0 edgecolor
newpath 38.7404 49.3644 moveto
40.08 38.8546 lineto
32.4788 46.2351 lineto
closepath stroke
0 0 0 edgecolor
14 /Times-Roman set_font
30.7954 62.9909 moveto 28 (7000) alignedtext
grestore
% node_21
gsave
1 setlinewidth
0 0 0 nodecolor
80.7954 114.3863 20.5929 20.5929 ellipse_path stroke
0 0 0 nodecolor
14 /Times-Roman set_font
73.2954 109.7863 moveto 15 (21) alignedtext
grestore
% node_21->node_20
gsave
1 setlinewidth
0 0 0 edgecolor
newpath 74.4332 94.5381 moveto
70.3365 81.7575 64.9357 64.9088 60.3309 50.543 curveto
stroke
0 0 0 edgecolor
newpath 63.534 49.0694 moveto
57.1485 40.615 lineto
56.8681 51.2062 lineto
closepath fill
1 setlinewidth
solid
0 0 0 edgecolor
newpath 63.534 49.0694 moveto
57.1485 40.615 lineto
56.8681 51.2062 lineto
closepath stroke
0 0 0 edgecolor
14 /Times-Roman set_font
66.7954 62.9909 moveto 35 (11000) alignedtext
grestore
endpage
showpage
grestore
%%PageTrailer
%%EndPage: 1
%%Trailer
%%Pages: 1
%%BoundingBox: 36 36 146 179
end
restore
%%EOF
