digraph G {
	node_19 [shape=circle,label="19"];
	node_20 [shape=circle,label="20"];
	node_1166277857 [shape=circle,label="1166277857"];
	node_1092089809 [shape=circle,label="1092089809"];

	node_20 -> node_19 [label="1000"];
	node_1166277857 -> node_15 [label="6969"];
	node_1092089809 -> node_25554 [label="4993078204928861311"];
}