digraph G {
	node_19 [shape=circle,label="19"];
	node_20 [shape=circle,label="20"];
	node_1166574042 [shape=circle,label="1166574042"];
	node_1166150128 [shape=circle,label="1166150128"];

	node_1166574042 -> node_420178 [label="445574"];
	node_1166150128 -> node_25975 [label="5007533845078901644"];
}