digraph G {
	node_19 [shape=circle,label="19"];
	node_20 [shape=circle,label="20"];
	node_1166359638 [shape=circle,label="1166359638"];
	node_1165853115 [shape=circle,label="1165853115"];

	node_19 -> node_20 [label="1000"];
	node_20 -> node_19 [label="1000"];
	node_1166359638 -> node_420868 [label="434764"];
	node_1165853115 -> node_442452 [label="5002267025481891229"];
}