digraph G {
	node_19 [shape=circle,label="19"];
	node_20 [shape=circle,label="20"];
	node_1162995141 [shape=circle,label="1162995141"];
	node_1162441853 [shape=circle,label="1162441853"];

	node_1162995141 -> node_628896 [label="759009"];
	node_1162441853 -> node_654022 [label="4944182270018630118"];
}