digraph G {
	node_19 [shape=circle,label="19"];
	node_20 [shape=circle,label="20"];
	node_21 [shape=circle,label="21"];
	node_21 [shape=circle,label="21"];

	node_20 -> node_19 [label="3000"];
	node_20 -> node_21 [label="5000"];
}