digraph G {
	node_19 [shape=circle,label="19"];
	node_20 [shape=circle,label="20"];
	node_1264 [shape=circle,label="1264"];

	node_19 -> node_20 [label="10000"];
	node_20 -> node_19 [label="11000"];
}