digraph G {
	node_19 [shape=circle,label="19"];
	node_20 [shape=circle,label="20"];
	node_1166197647 [shape=circle,label="1166197647"];
	node_1165285554 [shape=circle,label="1165285554"];

	node_1166197647 -> node_836348 [label="845830"];
	node_1165285554 -> node_439733 [label="4999685861806052612"];
}