digraph G {
	node_19 [shape=circle,label="19"];
	node_20 [shape=circle,label="20"];
	node_1149626941 [shape=circle,label="1149626941"];
	node_1150321705 [shape=circle,label="1150321705"];

	node_20 -> node_19 [label="43692"];
	node_1149626941 -> node_1011163 [label="1468472"];
	node_1150321705 -> node_1011701 [label="4929423667161433602"];
}