digraph G {
	node_19 [shape=circle,label="19"];
	node_20 [shape=circle,label="20"];
	node_1141665841 [shape=circle,label="1141665841"];
	node_1091040140 [shape=circle,label="1091040140"];

	node_1141665841 -> node_36 [label="9733"];
	node_1091040140 -> node_25718 [label="4997416950827209839"];
}