digraph G {
	node_19 [shape=circle,label="19"];
	node_20 [shape=circle,label="20"];
	node_1163961302 [shape=circle,label="1163961302"];
	node_1163370085 [shape=circle,label="1163370085"];

	node_1163961302 -> node_1477260 [label="1510515"];
	node_1163370085 -> node_1462550 [label="4947463951452041871"];
}