digraph G {
	node_19 [shape=circle,label="19"];
	node_20 [shape=circle,label="20"];
	node_1166309350 [shape=circle,label="1166309350"];
	node_1165746962 [shape=circle,label="1165746962"];

	node_19 -> node_20 [label="43692"];
	node_20 -> node_19 [label="42000"];
	node_1166309350 -> node_401319 [label="432620"];
	node_1165746962 -> node_423664 [label="5014734400713401464"];
}