digraph G {
	node_19 [shape=circle,label="19"];
	node_20 [shape=circle,label="20"];
	node_1166277857 [shape=circle,label="1166277857"];
	node_1165732708 [shape=circle,label="1165732708"];

	node_20 -> node_19 [label="1000"];
	node_1166277857 -> node_407035 [label="431126"];
	node_1165732708 -> node_437851 [label="5005969544988924900"];
}