digraph G {
	node_19 [shape=circle,label="19"];
	node_20 [shape=circle,label="20"];
	node_1166162046 [shape=circle,label="1166162046"];
	node_1165457120 [shape=circle,label="1165457120"];

	node_20 -> node_19 [label="1000"];
	node_1166162046 -> node_406851 [label="425115"];
	node_1165457120 -> node_24532 [label="4972465707682356654"];
}