digraph G {
	node_19 [shape=circle,label="19"];
	node_20 [shape=circle,label="20"];
	node_1166182634 [shape=circle,label="1166182634"];
	node_1165454750 [shape=circle,label="1165454750"];

	node_1166182634 -> node_420689 [label="425222"];
	node_1165454750 -> node_439733 [label="4999685861806052612"];
}