digraph G {
	node_19 [shape=circle,label="19"];
	node_20 [shape=circle,label="20"];
	node_1163120458 [shape=circle,label="1163120458"];
	node_1162819475 [shape=circle,label="1162819475"];

	node_19 -> node_20 [label="43692"];
	node_20 -> node_19 [label="3000"];
	node_1163120458 -> node_691880 [label="12968"];
	node_1163120458 -> node_657364 [label="766837"];
	node_1162819475 -> node_721391 [label="4926577070224168611"];
	node_1162819475 -> node_673539 [label="29885"];
}