digraph G {
	node_19 [shape=circle,label="19"];
	node_20 [shape=circle,label="20"];
	node_1159962932 [shape=circle,label="1159962932"];
	node_1160635391 [shape=circle,label="1160635391"];

	node_19 -> node_20 [label="43692"];
	node_20 -> node_19 [label="21000"];
	node_1159962932 -> node_802854 [label="72937"];
	node_1159962932 -> node_772466 [label="990645"];
	node_1160635391 -> node_1133867237 [label="14000"];
	node_1160635391 -> node_892342 [label="4892290350592239096"];
	node_1160635391 -> node_851760 [label="92770"];
}