digraph G {
	node_19 [shape=circle,label="19"];
	node_20 [shape=circle,label="20"];
	node_1166451923 [shape=circle,label="1166451923"];
	node_1166107184 [shape=circle,label="1166107184"];

	node_20 -> node_19 [label="1000"];
	node_1166451923 -> node_1248894 [label="1300973"];
	node_1166107184 -> node_920140 [label="5007270069676623096"];
}