digraph G {
	node_19 [shape=circle,label="19"];
	node_20 [shape=circle,label="20"];
	node_1161638953 [shape=circle,label="1161638953"];
	node_1161122591 [shape=circle,label="1161122591"];

	node_20 -> node_19 [label="43692"];
	node_1161638953 -> node_641116 [label="685331"];
	node_1161122591 -> node_631997 [label="1160957961"];
}