digraph G {
	node_19 [shape=circle,label="19"];
	node_20 [shape=circle,label="20"];
	node_1166368084 [shape=circle,label="1166368084"];
	node_1165860439 [shape=circle,label="1165860439"];

	node_19 -> node_20 [label="1000"];
	node_1166368084 -> node_414287 [label="435263"];
	node_1165860439 -> node_443230 [label="5007903130675842574"];
}