digraph G {
	node_19 [shape=circle,label="19"];
	node_20 [shape=circle,label="20"];
	node_1159489523 [shape=circle,label="1159489523"];
	node_1158461336 [shape=circle,label="1158461336"];

	node_19 -> node_20 [label="2000"];
	node_20 -> node_19 [label="1000"];
	node_1159489523 -> node_367372 [label="387204"];
	node_1158461336 -> node_397680 [label="5011887490224580351"];
}