digraph G {
	node_19 [shape=circle,label="19"];
	node_20 [shape=circle,label="20"];
	node_1153534051 [shape=circle,label="1153534051"];
	node_1153115355 [shape=circle,label="1153115355"];

	node_20 -> node_19 [label="43692"];
	node_1153534051 -> node_842667 [label="1062684"];
	node_1153115355 -> node_776264 [label="4919592023169342124"];
}