digraph G {
	node_19 [shape=circle,label="19"];
	node_20 [shape=circle,label="20"];
	node_1156479783 [shape=circle,label="1156479783"];
	node_1101527494 [shape=circle,label="1101527494"];

	node_1156479783 -> node_41 [label="11201"];
}