digraph G {
	node_19 [shape=circle,label="19"];
	node_20 [shape=circle,label="20"];
	node_1141463261 [shape=circle,label="1141463261"];
	node_1086327037 [shape=circle,label="1086327037"];

	node_20 -> node_19 [label="1000"];
	node_1141463261 -> node_18 [label="9075"];
	node_1086327037 -> node_24641 [label="4990831657859844847"];
}