digraph G {
	node_19 [shape=circle,label="19"];
	node_20 [shape=circle,label="20"];
	node_1166265998 [shape=circle,label="1166265998"];
	node_1165685271 [shape=circle,label="1165685271"];

	node_1166265998 -> node_395830 [label="430092"];
	node_1165685271 -> node_418624 [label="5003319983958202430"];
}