digraph G {
	node_19 [shape=circle,label="19"];
	node_20 [shape=circle,label="20"];
	node_1159002252 [shape=circle,label="1159002252"];
	node_1159342212 [shape=circle,label="1159342212"];

	node_19 -> node_20 [label="43692"];
	node_20 -> node_19 [label="43692"];
	node_1159002252 -> node_738366 [label="52454"];
	node_1159002252 -> node_701227 [label="893118"];
	node_1159342212 -> node_1130534692 [label="43692"];
	node_1159342212 -> node_805883 [label="1158635218"];
	node_1159342212 -> node_753706 [label="67519"];
}