digraph G {
	node_19 [shape=circle,label="19"];
	node_20 [shape=circle,label="20"];
	node_1165224565 [shape=circle,label="1165224565"];
	node_1164370097 [shape=circle,label="1164370097"];

	node_20 -> node_19 [label="1000"];
	node_1165224565 -> node_381193 [label="398161"];
	node_1164370097 -> node_26633 [label="5013025514819095888"];
}