digraph G {
	node_19 [shape=circle,label="19"];
	node_20 [shape=circle,label="20"];
	node_1172333846 [shape=circle,label="1172333846"];
	node_1171168985 [shape=circle,label="1171168985"];

	node_20 -> node_19 [label="1000"];
	node_1172333846 -> node_744093 [label="748650"];
	node_1171168985 -> node_812933 [label="5056447513941390431"];
}