digraph G {
	node_19 [shape=circle,label="19"];
	node_20 [shape=circle,label="20"];
	node_1152288437 [shape=circle,label="1152288437"];
	node_1151945545 [shape=circle,label="1151945545"];

	node_20 -> node_19 [label="43692"];
	node_1152288437 -> node_909066 [label="1193544"];
	node_1151945545 -> node_829909 [label="4716231721202962824"];
}