digraph G {
	node_19 [shape=circle,label="19"];
	node_20 [shape=circle,label="20"];
	node_1166336810 [shape=circle,label="1166336810"];
	node_1165863094 [shape=circle,label="1165863094"];

	node_1166336810 -> node_423741 [label="434678"];
	node_1165863094 -> node_448889 [label="5014819539850998560"];
}