digraph G {
	node_19 [shape=circle,label="19"];
	node_20 [shape=circle,label="20"];
	node_1166285606 [shape=circle,label="1166285606"];
	node_1165683949 [shape=circle,label="1165683949"];

	node_20 -> node_19 [label="24000"];
	node_1166285606 -> node_410968 [label="431153"];
	node_1165683949 -> node_433894 [label="5000395734000460746"];
}