digraph G {
	node_19 [shape=circle,label="19"];
	node_20 [shape=circle,label="20"];
	node_1158063632 [shape=circle,label="1158063632"];
	node_1157724901 [shape=circle,label="1157724901"];

	node_20 -> node_19 [label="43692"];
	node_1158063632 -> node_715296 [label="806595"];
	node_1157724901 -> node_711602 [label="4866141614734890663"];
}