digraph G {
	node_19 [shape=circle,label="19"];
	node_20 [shape=circle,label="20"];
	node_1166574042 [shape=circle,label="1166574042"];
	node_1166150128 [shape=circle,label="1166150128"];

	node_20 -> node_19 [label="16000"];
	node_1166574042 -> node_420178 [label="445574"];
	node_1166150128 -> node_440636 [label="5003891738595452428"];
}