digraph G {
	node_19 [shape=circle,label="19"];
	node_20 [shape=circle,label="20"];
	node_21 [shape=circle,label="21"];
	node_21 [shape=circle,label="21"];

	node_19 -> node_20 [label="13000"];
	node_21 -> node_20 [label="18000"];
}