digraph G {
	node_19 [shape=circle,label="19"];
	node_20 [shape=circle,label="20"];
	node_1167203002 [shape=circle,label="1167203002"];
	node_1166779209 [shape=circle,label="1166779209"];

	node_19 -> node_20 [label="36000"];
	node_20 -> node_19 [label="43692"];
	node_1167203002 -> node_459952 [label="476987"];
	node_1166779209 -> node_486417 [label="5008857042913135030"];
}