digraph G {
	node_19 [shape=circle,label="19"];
	node_20 [shape=circle,label="20"];
	node_1155399695 [shape=circle,label="1155399695"];
	node_1154866861 [shape=circle,label="1154866861"];

	node_20 -> node_19 [label="43692"];
	node_1155399695 -> node_776733 [label="940568"];
	node_1154866861 -> node_776264 [label="4919592023169342124"];
}