digraph G {
	node_19 [shape=circle,label="19"];
	node_20 [shape=circle,label="20"];
	node_1162131709 [shape=circle,label="1162131709"];
	node_1161777428 [shape=circle,label="1161777428"];

	node_19 -> node_20 [label="43692"];
	node_20 -> node_19 [label="43692"];
	node_1162131709 -> node_664449 [label="14480"];
	node_1162131709 -> node_640668 [label="739858"];
	node_1161777428 -> node_1123650473 [label="43692"];
	node_1161777428 -> node_688975 [label="1161484417"];
	node_1161777428 -> node_668252 [label="26948"];
}