digraph G {
	node_19 [shape=circle,label="19"];
	node_20 [shape=circle,label="20"];
	node_1161638953 [shape=circle,label="1161638953"];
	node_1165354831 [shape=circle,label="1165354831"];

	node_20 -> node_19 [label="43000"];
	node_1161638953 -> node_408743 [label="421359"];
	node_1165354831 -> node_424709 [label="5006694393734013275"];
}