digraph G {
	node_19 [shape=circle,label="19"];
	node_20 [shape=circle,label="20"];
	node_1149626941 [shape=circle,label="1149626941"];
	node_1149445572 [shape=circle,label="1149445572"];

	node_20 -> node_19 [label="43692"];
	node_1149626941 -> node_1050145 [label="1560098"];
	node_1149445572 -> node_1041618 [label="4753516435375000824"];
}