digraph G {
	node_19 [shape=circle,label="19"];
	node_20 [shape=circle,label="20"];
	node_1164612016 [shape=circle,label="1164612016"];
	node_1163811761 [shape=circle,label="1163811761"];

	node_19 -> node_20 [label="8000"];
	node_20 -> node_19 [label="6000"];
	node_1164612016 -> node_379296 [label="383140"];
	node_1163811761 -> node_384165 [label="4997006407801542997"];
}