digraph G {
	node_19 [shape=circle,label="19"];
	node_20 [shape=circle,label="20"];
	node_1166709906 [shape=circle,label="1166709906"];
	node_1166299659 [shape=circle,label="1166299659"];

	node_19 -> node_20 [label="17000"];
	node_20 -> node_19 [label="26000"];
	node_1166709906 -> node_441086 [label="452497"];
	node_1166299659 -> node_458914 [label="5005268219779680239"];
}