digraph G {
	node_19 [shape=circle,label="19"];
	node_20 [shape=circle,label="20"];
	node_1166093754 [shape=circle,label="1166093754"];
	node_1165354831 [shape=circle,label="1165354831"];

	node_20 -> node_19 [label="27000"];
	node_1166093754 -> node_408743 [label="421359"];
	node_1165354831 -> node_424709 [label="5006694393734013275"];
}