digraph G {
	node_19 [shape=circle,label="19"];
	node_20 [shape=circle,label="20"];
	node_1166309350 [shape=circle,label="1166309350"];
	node_1165746962 [shape=circle,label="1165746962"];

	node_1166309350 -> node_401319 [label="432620"];
	node_1165746962 -> node_24920 [label="4983210096657490606"];
}