digraph G {
	node_19 [shape=circle,label="19"];
	node_20 [shape=circle,label="20"];
	node_1166121254 [shape=circle,label="1166121254"];
	node_1165417519 [shape=circle,label="1165417519"];

	node_19 -> node_20 [label="42000"];
	node_1166121254 -> node_405607 [label="423047"];
	node_1165417519 -> node_429144 [label="5006866613332826169"];
}