digraph G {
	node_19 [shape=circle,label="19"];
	node_20 [shape=circle,label="20"];
	node_1158364781 [shape=circle,label="1158364781"];
	node_1159468491 [shape=circle,label="1159468491"];

	node_19 -> node_20 [label="43692"];
	node_20 -> node_19 [label="43692"];
	node_1158364781 -> node_909389 [label="128816"];
	node_1158364781 -> node_878436 [label="1197230"];
	node_1159468491 -> node_1136056133 [label="43692"];
	node_1159468491 -> node_1052968 [label="4822202278230883485"];
	node_1159468491 -> node_1014091 [label="149625"];
}